1-2 year,one
2-3 years,two
3-4 years,three
4-5 years,four
5-6 years,five
6-7 years,six
7-8 years,seven
8-9 years,eight
9-10 years,nine
10-11 years,ten
several years,four
several years,five
several years,six
